{
  "project_info": {
    "project_number": "702964220575",
    "project_id": "app-plan-carrera",
    "storage_bucket": "app-plan-carrera.appspot.com"
  },
  "client": [
    {
      "client_info": {
        "mobilesdk_app_id": "1:702964220575:android:93e2d6a7bd5d6fc76b98aa",
        "android_client_info": {
          "package_name": "com.example.app"
        }
      },
      "oauth_client": [
        {
          "client_id": "702964220575-hkbdkqv7amurjlfblkko73g4ae5t71kk.apps.googleusercontent.com",
          "client_type": 1,
          "android_info": {
            "package_name": "com.example.app",
            "certificate_hash": "b69491c78bd29a72cb2cf88ad62f13f0909cb288"
          }
        },
        {
          "client_id": "702964220575-com7lr78mff05f23s0dmmou5qctj1ub4.apps.googleusercontent.com",
          "client_type": 3
        }
      ],
      "api_key": [
        {
          "current_key": "AIzaSyBqf1jwQcW3bsxYc2k4FY4aqqyX1Pm5P1U"
        }
      ],
      "services": {
        "appinvite_service": {
          "other_platform_oauth_client": [
            {
              "client_id": "702964220575-com7lr78mff05f23s0dmmou5qctj1ub4.apps.googleusercontent.com",
              "client_type": 3
            }
          ]
        }
      }
    }
  ],
  "configuration_version": "1"
}